# 1 "src/math.c"
# 1 "<built-in>"
# 1 "<command-line>"
# 1 "/usr/include/stdc-predef.h" 1 3 4
# 1 "<command-line>" 2
# 1 "src/math.c"
# 1 "src/math.h" 1

double sqrt_aux(double x, double last);

double racine(double x);

double Square(double x);
# 2 "src/math.c" 2

double sqrt_aux(double x, double last)
{
        double next;

        next = (last+x/last) / 2;

        if ((next - last) < 1E-16 && (next - last) > -1E-16)
                return next;

        else
                return sqrt_aux(x, next);

}

double racine(double x)
{
        if (x<0)
                return 0;

        return sqrt_aux(x, x);
}

double Square(double x)
{
        return x*x;
}
